{
    "jet_collection": "AntiKtVR30Rmax4Rmin02TrackJets_BTagging201903",
    "do_calibration": "false",
    "run_augmenters": "false",
    "vr_cuts": "true",
    "n_tracks_to_save": 40,
    "pt_cut": 10000,
    "track_sort_order": "d0_significance",
    "track_selection": {
        "pt_minimum": 1000,
        "d0_maximum": 1,
        "z0_maximum": 1.5,
        "si_hits_minimum": 7,
        "si_holes_maximum": 2,
        "pix_holes_maximum": 1
    },
    "dl2_configs": [
        {
            "nn_file_path": "BTagging/201903/dl1r/antikt4empflow/network.json",
            "output_remapping": {
                "DL1r_pu": "DL1rNew_pu",
                "DL1r_pc": "DL1rNew_pc",
                "DL1r_pb": "DL1rNew_pb"
            }
        }
    ],
    "variables": {
        "btag": {
            "file": "single-btag-variables.json",
            "jet_int_variables": ["vr_overlap"],
            "doubles": ["DL1rNew_pu","DL1rNew_pc","DL1rNew_pb"]
        },
        "track": {
            "file": "single-btag-track-variables.json"
        }
    }
}
